{
  "registries":{
    "file_path": "/resources/registries/Шаблон.xlsx",
    "name_work_list": "Лист1",
    "rows_count": 2
  },
  "letter_template": {
    "file_path": "/resources/letter_template/Шаблон.docx"
  }
}